2.708837777093075182e-04 0.000000000000000000e+00 1.299795249403262916e-02 1.000000000000000000e+00
0.000000000000000000e+00 3.414324777885742413e-04 1.361470730605387688e-02 1.000000000000000000e+00
0.000000000000000000e+00 1.404974526020484355e-03 1.675788170003001537e-02 1.000000000000000000e+00
0.000000000000000000e+00 2.680320138835437429e-03 2.103607476526591843e-02 1.000000000000000000e+00
2.358494793859684669e-05 4.193205456673681705e-03 2.612839226134812398e-02 1.000000000000000000e+00
3.093760529948171262e-04 5.947108391711191690e-03 3.196759834675300116e-02 1.000000000000000000e+00
6.703572786137642269e-04 7.935855260338797734e-03 3.858242609369706005e-02 1.000000000000000000e+00
1.079730238843929326e-03 1.015739177724878615e-02 4.573543239310038505e-02 1.000000000000000000e+00
1.548225376077893732e-03 1.260988050606389257e-02 5.285758314484121506e-02 1.000000000000000000e+00
2.086145712905697336e-03 1.528589858800372472e-02 5.993508318764518422e-02 1.000000000000000000e+00
2.648882115390915112e-03 1.818374324465708500e-02 6.708718313527931021e-02 1.000000000000000000e+00
3.257275718463415945e-03 2.130241021863541612e-02 7.421138131988877507e-02 1.000000000000000000e+00
3.923790658052831760e-03 2.463058154146171436e-02 8.132783063713186489e-02 1.000000000000000000e+00
4.598835822400969275e-03 2.816941111347647311e-02 8.853027966101878476e-02 1.000000000000000000e+00
5.310438721336195426e-03 3.191875981396118112e-02 9.572059807518309982e-02 1.000000000000000000e+00
6.065324375459341111e-03 3.587197162906209658e-02 1.029069126731342876e-01 1.000000000000000000e+00
6.819254981162398144e-03 4.002060844141067109e-02 1.102079335278511596e-01 1.000000000000000000e+00
7.601517556990741199e-03 4.420048265332133380e-02 1.175129082706311001e-01 1.000000000000000000e+00
8.411395353157139279e-03 4.831731433559562777e-02 1.248216272041775543e-01 1.000000000000000000e+00
9.257840636254255698e-03 5.237524065573590654e-02 1.321469954714877548e-01 1.000000000000000000e+00
1.008175334641132209e-02 5.637315496658978214e-02 1.396081412034299585e-01 1.000000000000000000e+00
1.092537398313542761e-02 6.032240173829644253e-02 1.470875693094315650e-01 1.000000000000000000e+00
1.178826320357065881e-02 6.422614323554359794e-02 1.545833171993415689e-01 1.000000000000000000e+00
1.267691523524441637e-02 6.808485102545544509e-02 1.620960323148961657e-01 1.000000000000000000e+00
1.352628942576755353e-02 7.188841019710867641e-02 1.697721184505434355e-01 1.000000000000000000e+00
1.444755210478653948e-02 7.566127307747527730e-02 1.773522722159117659e-01 1.000000000000000000e+00
1.532130212014730028e-02 7.938629627210225248e-02 1.850808981148023002e-01 1.000000000000000000e+00
1.614105199557421336e-02 8.306337965076404650e-02 1.929631187395479675e-01 1.000000000000000000e+00
1.704313789620109584e-02 8.671589658133027623e-02 2.007349830136524460e-01 1.000000000000000000e+00
1.788336959541596619e-02 9.032083324489642573e-02 2.086747123510948043e-01 1.000000000000000000e+00
1.872636866451682022e-02 9.389185119855367190e-02 2.166484326963268869e-01 1.000000000000000000e+00
1.957257292413298877e-02 9.743137018880637656e-02 2.246495014663288381e-01 1.000000000000000000e+00
2.034730051950836907e-02 1.009277948743385334e-01 2.328062597148433666e-01 1.000000000000000000e+00
2.112509034819669285e-02 1.043961223050320908e-01 2.409783201147349674e-01 1.000000000000000000e+00
2.190979883899085365e-02 1.078389472191918219e-01 2.491554252302653483e-01 1.000000000000000000e+00
2.261383671094515171e-02 1.112426552423183557e-01 2.574774197096632022e-01 1.000000000000000000e+00
2.323399119125563184e-02 1.146086152141739256e-01 2.659362875971690299e-01 1.000000000000000000e+00
2.385279010724931231e-02 1.179548999016141464e-01 2.743832759376987895e-01 1.000000000000000000e+00
2.438657720449866409e-02 1.212686876891994336e-01 2.829425495090506781e-01 1.000000000000000000e+00
2.483511073726147808e-02 1.245534580450096407e-01 2.915957602194846343e-01 1.000000000000000000e+00
2.520003998672627407e-02 1.278139605103110199e-01 3.003185277430735489e-01 1.000000000000000000e+00
2.548474423290934474e-02 1.310562939834596929e-01 3.090806232727956737e-01 1.000000000000000000e+00
2.560389491298234108e-02 1.342718096861430788e-01 3.179743796486979579e-01 1.000000000000000000e+00
2.556291350221410671e-02 1.374706759310158344e-01 3.269466540579344382e-01 1.000000000000000000e+00
2.527777269041102393e-02 1.406501450161926903e-01 3.360560690017671548e-01 1.000000000000000000e+00
2.484904736098108094e-02 1.438411349084685042e-01 3.451049686596775468e-01 1.000000000000000000e+00
2.394404126391045176e-02 1.470197429624080510e-01 3.543846140555004798e-01 1.000000000000000000e+00
2.268293764377199082e-02 1.502421950432830944e-01 3.635785700320591229e-01 1.000000000000000000e+00
2.065839041162066680e-02 1.535152820174702226e-01 3.728749559432354421e-01 1.000000000000000000e+00
1.759133805075961676e-02 1.569226792407578119e-01 3.820595417063243904e-01 1.000000000000000000e+00
1.273094199761481624e-02 1.606300505350259922e-01 3.908228476654336814e-01 1.000000000000000000e+00
5.483175481240369457e-03 1.650011278765996514e-01 3.979374847228087653e-01 1.000000000000000000e+00
0.000000000000000000e+00 1.701677761249475451e-01 4.018351785022767353e-01 1.000000000000000000e+00
0.000000000000000000e+00 1.755921061711527287e-01 4.034940005385260764e-01 1.000000000000000000e+00
0.000000000000000000e+00 1.810012911956508652e-01 4.041894501057600730e-01 1.000000000000000000e+00
0.000000000000000000e+00 1.862240947368747068e-01 4.038653494617657214e-01 1.000000000000000000e+00
1.562831465906231549e-03 1.895388422331811817e-01 4.033634846255724216e-01 1.000000000000000000e+00
1.908711699157654082e-02 1.927383025477310552e-01 4.029373907858828097e-01 1.000000000000000000e+00
3.702321963315013259e-02 1.959557051493404645e-01 4.024158576055777981e-01 1.000000000000000000e+00
5.376837842877079526e-02 1.991909513601710646e-01 4.018097989832580264e-01 1.000000000000000000e+00
6.777856306655122287e-02 2.024459785175635740e-01 4.011191237279929656e-01 1.000000000000000000e+00
7.988278526977876659e-02 2.057206833893938103e-01 4.004839062200551969e-01 1.000000000000000000e+00
9.094230721872267886e-02 2.089987685373840276e-01 3.997342043743444262e-01 1.000000000000000000e+00
1.010806224863803060e-01 2.122868283341171058e-01 3.989742053073004890e-01 1.000000000000000000e+00
1.105002247551219730e-01 2.155836857943007612e-01 3.982120309682750658e-01 1.000000000000000000e+00
1.193370438124727040e-01 2.188884485424391624e-01 3.974577393807122716e-01 1.000000000000000000e+00
1.276915296723358795e-01 2.222017516245202162e-01 3.967099024713324762e-01 1.000000000000000000e+00
1.356377448307369282e-01 2.255208293527231622e-01 3.959866246579226146e-01 1.000000000000000000e+00
1.432312209234597733e-01 2.288447597756161911e-01 3.952984255168192074e-01 1.000000000000000000e+00
1.505184710162301431e-01 2.321729105614362965e-01 3.946503829743012726e-01 1.000000000000000000e+00
1.576277868966628748e-01 2.355006552437718947e-01 3.939354568661715406e-01 1.000000000000000000e+00
1.644005821104029819e-01 2.388359603299596845e-01 3.933857780736266796e-01 1.000000000000000000e+00
1.710438504080932787e-01 2.421703930632357338e-01 3.927774468633641880e-01 1.000000000000000000e+00
1.774862375944263049e-01 2.455095299963414024e-01 3.922194769814941750e-01 1.000000000000000000e+00
1.838264631530084348e-01 2.488478696059037709e-01 3.916083753013697155e-01 1.000000000000000000e+00
1.899178720367573625e-01 2.521927819566036066e-01 3.911803411979407064e-01 1.000000000000000000e+00
1.959323917908494250e-01 2.555365506970136424e-01 3.907063224556101555e-01 1.000000000000000000e+00
2.018023430755186975e-01 2.588825876558514261e-01 3.903077041200320174e-01 1.000000000000000000e+00
2.075380699885773228e-01 2.622305469091353869e-01 3.899905539927535636e-01 1.000000000000000000e+00
2.132190261553742472e-01 2.655774050215199966e-01 3.896358297690445394e-01 1.000000000000000000e+00
2.187808628319233284e-01 2.689294291725091712e-01 3.893458225065008493e-01 1.000000000000000000e+00
2.242309301596653870e-01 2.722842372705803204e-01 3.891396645451775105e-01 1.000000000000000000e+00
2.296417505642641133e-01 2.756379105818191899e-01 3.889032146261279799e-01 1.000000000000000000e+00
2.349497668745430534e-01 2.789931426713721518e-01 3.887679660145707539e-01 1.000000000000000000e+00
2.401623899389832006e-01 2.823532220951605054e-01 3.887107091535725867e-01 1.000000000000000000e+00
2.453475502787958451e-01 2.857142819450885218e-01 3.886141041772386284e-01 1.000000000000000000e+00
2.505053267408104967e-01 2.890744411967516303e-01 3.884966703361993901e-01 1.000000000000000000e+00
2.555147492061752845e-01 2.924397925607519766e-01 3.886159645975305055e-01 1.000000000000000000e+00
2.605674556211964310e-01 2.958064265572151741e-01 3.885448602041611244e-01 1.000000000000000000e+00
2.654783005971037557e-01 2.991766778912701708e-01 3.887316949561333002e-01 1.000000000000000000e+00
2.703727130132699830e-01 3.025480836454076949e-01 3.888913569728928987e-01 1.000000000000000000e+00
2.752537727548179380e-01 3.059230713037247029e-01 3.890012840689647811e-01 1.000000000000000000e+00
2.800600422416891222e-01 3.092991755955553090e-01 3.892478570763855950e-01 1.000000000000000000e+00
2.848557975646308638e-01 3.126792449254784390e-01 3.894459388294033708e-01 1.000000000000000000e+00
2.895829517968285804e-01 3.160628082696609331e-01 3.897626156608642312e-01 1.000000000000000000e+00
2.942984422196361916e-01 3.194469577574703401e-01 3.900709714818526019e-01 1.000000000000000000e+00
2.989527104366004329e-01 3.228382345679789989e-01 3.904642305090748611e-01 1.000000000000000000e+00
3.035949918991910912e-01 3.262283220265331241e-01 3.908747420139491724e-01 1.000000000000000000e+00
3.081805292583640887e-01 3.296269184978685707e-01 3.913597858191952827e-01 1.000000000000000000e+00
3.127559663129860779e-01 3.330248134273804950e-01 3.918628770394528282e-01 1.000000000000000000e+00
3.172762034571510736e-01 3.364301211392513036e-01 3.924572582048204694e-01 1.000000000000000000e+00
3.218419344262083426e-01 3.398343396941438943e-01 3.929127130984474969e-01 1.000000000000000000e+00
3.263006770489596531e-01 3.432471546122319861e-01 3.936181062752672211e-01 1.000000000000000000e+00
3.308058305954498235e-01 3.466595762507378997e-01 3.941810211493043670e-01 1.000000000000000000e+00
3.352589574928637184e-01 3.500791413851969680e-01 3.948472336410409067e-01 1.000000000000000000e+00
3.396547039350747421e-01 3.535013501144351755e-01 3.956794017848545009e-01 1.000000000000000000e+00
3.440536558771189468e-01 3.569303286700007960e-01 3.964533989208504083e-01 1.000000000000000000e+00
3.484450503488855100e-01 3.603590012265830422e-01 3.972668975470355912e-01 1.000000000000000000e+00
3.528434999105244940e-01 3.637965720786073276e-01 3.979942288814551921e-01 1.000000000000000000e+00
3.571845753895591113e-01 3.672354702351818823e-01 3.989184145405660353e-01 1.000000000000000000e+00
3.614812158577535572e-01 3.706830560280574005e-01 3.999384926068042523e-01 1.000000000000000000e+00
3.658253185447363220e-01 3.741317469399714213e-01 4.008133002394376754e-01 1.000000000000000000e+00
3.701202182605232704e-01 3.775858928754525778e-01 4.018352277558434049e-01 1.000000000000000000e+00
3.743711439474381453e-01 3.810479992690803397e-01 4.029697703546015752e-01 1.000000000000000000e+00
3.786658044306820403e-01 3.845093420005360474e-01 4.039933662609018206e-01 1.000000000000000000e+00
3.828735372021996874e-01 3.879827492117216559e-01 4.052505021491993320e-01 1.000000000000000000e+00
3.871281291178079176e-01 3.914574216348051250e-01 4.063707608727216147e-01 1.000000000000000000e+00
3.913324104582283636e-01 3.949354265213526061e-01 4.076835001315191609e-01 1.000000000000000000e+00
3.955542966758193724e-01 3.984239485028526762e-01 4.088813529229664012e-01 1.000000000000000000e+00
3.997204309239925091e-01 4.019150768430431730e-01 4.103065184082004269e-01 1.000000000000000000e+00
4.038910144822151493e-01 4.054078844529558356e-01 4.117524540240895536e-01 1.000000000000000000e+00
4.080662749961469493e-01 4.089021679142798016e-01 4.132221729590477843e-01 1.000000000000000000e+00
4.121611169490206339e-01 4.124078852447412014e-01 4.149407952620083884e-01 1.000000000000000000e+00
4.162449632371312269e-01 4.159324003447439910e-01 4.165836521666687609e-01 1.000000000000000000e+00
4.204486650408324477e-01 4.193965382810653231e-01 4.184167379413982202e-01 1.000000000000000000e+00
4.246341160673059445e-01 4.228906624454830121e-01 4.200960606465464764e-01 1.000000000000000000e+00
4.286417236783758855e-01 4.264631946408259933e-01 4.217636372785865118e-01 1.000000000000000000e+00
4.327264175679578773e-01 4.300687639124599615e-01 4.228835942299850048e-01 1.000000000000000000e+00
4.370490157082716487e-01 4.336252646845161762e-01 4.236268424537256716e-01 1.000000000000000000e+00
4.415763098331249581e-01 4.371350246766679826e-01 4.240895576459444705e-01 1.000000000000000000e+00
4.460111740377101230e-01 4.406979460379201741e-01 4.244457647558833036e-01 1.000000000000000000e+00
4.505909640215929879e-01 4.442375883989969632e-01 4.245139236040745834e-01 1.000000000000000000e+00
4.550969839975190223e-01 4.478061139150482650e-01 4.246426149239794778e-01 1.000000000000000000e+00
4.596928376960351392e-01 4.513683867758094270e-01 4.245269323023681540e-01 1.000000000000000000e+00
4.642565317881092724e-01 4.549471119552365717e-01 4.244311169257672378e-01 1.000000000000000000e+00
4.688846531462853018e-01 4.585270849770891055e-01 4.241130870137287401e-01 1.000000000000000000e+00
4.735018005770623151e-01 4.621177022909495613e-01 4.237876127936682780e-01 1.000000000000000000e+00
4.781226796230987897e-01 4.657150564956165639e-01 4.234355533275142025e-01 1.000000000000000000e+00
4.827473072469012361e-01 4.693193270829801311e-01 4.230564519754527186e-01 1.000000000000000000e+00
4.873640694336315859e-01 4.729337304361212468e-01 4.226680171533242492e-01 1.000000000000000000e+00
4.920374939483326826e-01 4.765519058348501313e-01 4.220567589227297578e-01 1.000000000000000000e+00
4.966923519679556365e-01 4.801832434310255304e-01 4.214504728841068637e-01 1.000000000000000000e+00
5.013601494160259131e-01 4.838193880674474534e-01 4.208021156104568838e-01 1.000000000000000000e+00
5.060231946631126299e-01 4.874652353287085016e-01 4.201389073500919613e-01 1.000000000000000000e+00
5.107266496868182459e-01 4.911194307322265806e-01 4.192697857972738085e-01 1.000000000000000000e+00
5.153982061737569786e-01 4.947801497699512718e-01 4.185484629645365162e-01 1.000000000000000000e+00
5.200969141755740210e-01 4.984530095699807872e-01 4.176395187319607016e-01 1.000000000000000000e+00
5.248052086825117923e-01 5.021320101540370784e-01 4.166924270855889567e-01 1.000000000000000000e+00
5.295104456198149734e-01 5.058208002787160096e-01 4.157269543497015274e-01 1.000000000000000000e+00
5.342524278585140118e-01 5.095191963381435762e-01 4.145527101389666624e-01 1.000000000000000000e+00
5.389641956760732322e-01 5.132243585561094834e-01 4.135301695606171113e-01 1.000000000000000000e+00
5.437036501576106851e-01 5.169417417135631077e-01 4.123119170705670800e-01 1.000000000000000000e+00
5.484477434701016119e-01 5.206670917369267126e-01 4.110622657387213996e-01 1.000000000000000000e+00
5.531967551571396191e-01 5.244004448807985108e-01 4.097809285115581179e-01 1.000000000000000000e+00
5.579355294152695821e-01 5.281461689181142782e-01 4.084941168781488496e-01 1.000000000000000000e+00
5.626814469680250230e-01 5.318994494243052262e-01 4.071735316478337086e-01 1.000000000000000000e+00
5.674640621021019848e-01 5.356625174397976474e-01 4.056352431466822006e-01 1.000000000000000000e+00
5.722046792952441008e-01 5.394367284014283115e-01 4.042805690278505892e-01 1.000000000000000000e+00
5.769869546757179224e-01 5.432193881242003419e-01 4.026980611333384474e-01 1.000000000000000000e+00
5.817678884337342815e-01 5.470123215776536707e-01 4.010955452987453040e-01 1.000000000000000000e+00
5.865445494374559310e-01 5.508163943780312044e-01 3.994802327371787531e-01 1.000000000000000000e+00
5.913601434254067701e-01 5.546296455252262003e-01 3.976362983287528574e-01 1.000000000000000000e+00
5.961412540028001583e-01 5.584526792757508185e-01 3.959707281320899441e-01 1.000000000000000000e+00
6.009509346521821893e-01 5.622877706660617259e-01 3.940962397449706556e-01 1.000000000000000000e+00
6.057646809286821865e-01 5.661319516791010198e-01 3.921930244160123369e-01 1.000000000000000000e+00
6.105799457303473510e-01 5.699860589032380576e-01 3.902665227394495062e-01 1.000000000000000000e+00
6.154200350641136907e-01 5.738531664997484905e-01 3.881347222763693594e-01 1.000000000000000000e+00
6.202316573558228630e-01 5.777290723186578880e-01 3.861790860664729430e-01 1.000000000000000000e+00
6.250779861035365981e-01 5.816153486274195927e-01 3.839952303609540096e-01 1.000000000000000000e+00
6.299176142081924779e-01 5.855139258344710385e-01 3.818091585890076023e-01 1.000000000000000000e+00
6.347577441010523458e-01 5.894229626275622191e-01 3.796056347453983237e-01 1.000000000000000000e+00
6.396304413574244174e-01 5.933428009301779937e-01 3.771749055380347881e-01 1.000000000000000000e+00
6.444735820851299479e-01 5.972724698875191418e-01 3.749327604409768422e-01 1.000000000000000000e+00
6.493397965245708559e-01 6.012153094078787063e-01 3.724892993487839976e-01 1.000000000000000000e+00
6.542366374122812189e-01 6.051692911287706034e-01 3.698202383017447081e-01 1.000000000000000000e+00
6.591062978671804462e-01 6.091328468969759991e-01 3.673396101026195626e-01 1.000000000000000000e+00
6.640032642857214285e-01 6.131083386088187481e-01 3.646431334874404295e-01 1.000000000000000000e+00
6.689217223268582035e-01 6.170969761233797701e-01 3.617460792854977902e-01 1.000000000000000000e+00
6.738131189803249210e-01 6.210954629080074341e-01 3.590450214899369441e-01 1.000000000000000000e+00
6.787320721613151475e-01 6.251056370784261462e-01 3.561251513140924474e-01 1.000000000000000000e+00
6.836510970512913454e-01 6.291267359250966029e-01 3.531958816001027346e-01 1.000000000000000000e+00
6.885919120979335784e-01 6.331605539333968746e-01 3.500669347887697680e-01 1.000000000000000000e+00
6.935290363079021914e-01 6.372060710625893076e-01 3.469447038137197792e-01 1.000000000000000000e+00
6.984655733533607913e-01 6.412626354513951688e-01 3.438212004419822776e-01 1.000000000000000000e+00
7.034259916229955722e-01 6.453312333851500826e-01 3.404900814362951667e-01 1.000000000000000000e+00
7.084088202946260404e-01 6.494119717046087370e-01 3.369548152986764356e-01 1.000000000000000000e+00
7.133661647590534560e-01 6.535030581865484134e-01 3.336328686253445808e-01 1.000000000000000000e+00
7.183671668300645186e-01 6.576074157668881925e-01 3.299111329649674351e-01 1.000000000000000000e+00
7.233626521887958072e-01 6.617235569619964730e-01 3.262164521360236269e-01 1.000000000000000000e+00
7.283556363395007338e-01 6.658509737484561430e-01 3.225390782939940859e-01 1.000000000000000000e+00
7.333683457971361674e-01 6.699904592100548451e-01 3.186741015038940250e-01 1.000000000000000000e+00
7.383994462112200008e-01 6.741419832543049662e-01 3.146281065239393548e-01 1.000000000000000000e+00
7.434478132834597686e-01 6.783054968746736746e-01 3.104065842777106732e-01 1.000000000000000000e+00
7.484919318275508049e-01 6.824802424313224369e-01 3.062201724479237108e-01 1.000000000000000000e+00
7.535521795756777719e-01 6.866668664585315884e-01 3.018688630397372008e-01 1.000000000000000000e+00
7.586275231908071737e-01 6.908652495355614986e-01 2.973601673466473860e-01 1.000000000000000000e+00
7.637170932420290770e-01 6.950752651942622151e-01 2.927007367065436738e-01 1.000000000000000000e+00
7.688200353309032620e-01 6.992967621199214223e-01 2.878982061351888500e-01 1.000000000000000000e+00
7.739355792844089255e-01 7.035295896131923410e-01 2.829600081398934708e-01 1.000000000000000000e+00
7.790629704694324031e-01 7.077735671606374401e-01 2.778948337477252784e-01 1.000000000000000000e+00
7.842170800549751464e-01 7.120289787522358083e-01 2.725298696654510633e-01 1.000000000000000000e+00
7.893787506868688020e-01 7.162951574722081771e-01 2.670800700349602042e-01 1.000000000000000000e+00
7.945492570277061795e-01 7.205717769666958317e-01 2.615393222566924636e-01 1.000000000000000000e+00
7.997601611371275565e-01 7.248588635795937263e-01 2.555314698571344301e-01 1.000000000000000000e+00
8.049750016015183585e-01 7.291557743276987358e-01 2.494862266149703300e-01 1.000000000000000000e+00
8.102070008006847512e-01 7.334622534149317641e-01 2.432483593260178489e-01 1.000000000000000000e+00
8.154731796307843616e-01 7.377776082310711914e-01 2.366051235423030086e-01 1.000000000000000000e+00
8.207628161088742491e-01 7.421011297058063283e-01 2.296895452395280035e-01 1.000000000000000000e+00
8.260793649265388838e-01 7.464320487109589175e-01 2.224563679690516604e-01 1.000000000000000000e+00
8.314141002435442296e-01 7.507694909427182761e-01 2.150347324399161097e-01 1.000000000000000000e+00
8.368018048514044294e-01 7.551109900391788088e-01 2.069641344801605998e-01 1.000000000000000000e+00
8.422108483100725351e-01 7.594561042409538887e-01 1.986899248408914298e-01 1.000000000000000000e+00
8.476792884267173589e-01 7.638004625616300336e-01 1.897178699795485923e-01 1.000000000000000000e+00
8.531940173730561128e-01 7.681414481816537521e-01 1.802860076504325115e-01 1.000000000000000000e+00
8.587758332774475534e-01 7.724717864954370183e-01 1.702414240375838828e-01 1.000000000000000000e+00
8.644635975696099983e-01 7.767787566537514010e-01 1.592649115393847681e-01 1.000000000000000000e+00
8.703125768122924599e-01 7.810346916600857670e-01 1.473023733114795786e-01 1.000000000000000000e+00
8.766208818581558981e-01 7.851094449177143941e-01 1.339063363700787879e-01 1.000000000000000000e+00
8.829462900329789754e-01 7.887112342996887016e-01 1.458309204166648720e-01 1.000000000000000000e+00
8.875938526516342630e-01 7.928801050137952444e-01 1.666745337611964806e-01 1.000000000000000000e+00
8.920089202272999396e-01 7.971621383434562835e-01 1.860255099012676494e-01 1.000000000000000000e+00
8.963108693868369059e-01 8.015029409268251692e-01 2.043151690476619486e-01 1.000000000000000000e+00
9.005402466231882119e-01 8.058896982038183943e-01 2.216143447943239586e-01 1.000000000000000000e+00
9.047197852476012159e-01 8.103103677345914191e-01 2.381973926435703159e-01 1.000000000000000000e+00
9.088664335047930143e-01 8.147634728853505592e-01 2.540202384462346696e-01 1.000000000000000000e+00
9.129752525770771232e-01 8.192408600191635193e-01 2.695217998661994518e-01 1.000000000000000000e+00
9.170694727066678320e-01 8.237445370195664029e-01 2.844185445636406295e-01 1.000000000000000000e+00
9.211336041348892056e-01 8.282684147029222288e-01 2.991511333234593284e-01 1.000000000000000000e+00
9.251812338851675976e-01 8.328152374709544281e-01 3.135271320940258843e-01 1.000000000000000000e+00
9.292122953277511810e-01 8.373829650875544983e-01 3.276503391923073494e-01 1.000000000000000000e+00
9.332388794535814158e-01 8.419709991618269385e-01 3.414451193324705147e-01 1.000000000000000000e+00
9.372521899411949686e-01 8.465779076446348084e-01 3.550779512698932772e-01 1.000000000000000000e+00
9.412584619422602605e-01 8.512036130455993277e-01 3.685137971814197999e-01 1.000000000000000000e+00
9.452430435400803743e-01 8.558581462304749587e-01 3.817031280559147755e-01 1.000000000000000000e+00
9.490493550082245156e-01 8.605988671112557720e-01 3.949278009061806261e-01 1.000000000000000000e+00
9.510856702573958765e-01 8.661244092050904841e-01 4.082630792605302927e-01 1.000000000000000000e+00
9.531524199753106386e-01 8.716480959291684760e-01 4.214410361083049672e-01 1.000000000000000000e+00
9.553041918692527501e-01 8.771499642570992350e-01 4.344112764939309090e-01 1.000000000000000000e+00
9.575447180613508857e-01 8.826312369426445592e-01 4.471529749865369996e-01 1.000000000000000000e+00
9.597647213079688600e-01 8.881217846615976352e-01 4.600245953084468042e-01 1.000000000000000000e+00
9.619811622328039435e-01 8.936203786890327683e-01 4.729125436809242244e-01 1.000000000000000000e+00
9.642932453147995409e-01 8.991028039144000061e-01 4.854952040639239352e-01 1.000000000000000000e+00
9.665937831066538921e-01 9.045987136972113429e-01 4.980902221800319052e-01 1.000000000000000000e+00
9.688894547111716049e-01 9.101081590159179058e-01 5.106528919247987908e-01 1.000000000000000000e+00
9.711876171906100863e-01 9.156296662529309627e-01 5.231636184711146997e-01 1.000000000000000000e+00
9.735803939518542505e-01 9.211441028398251740e-01 5.353040305218571548e-01 1.000000000000000000e+00
9.758695242753711030e-01 9.267015382801950807e-01 5.476493192004544541e-01 1.000000000000000000e+00
9.781637742468066721e-01 9.322739306929086478e-01 5.599065487557172149e-01 1.000000000000000000e+00
9.803571559530804835e-01 9.378886427862426212e-01 5.723511329134183256e-01 1.000000000000000000e+00
9.826464873327592775e-01 9.435052471108797967e-01 5.843296760505320986e-01 1.000000000000000000e+00
9.848410970553899135e-01 9.491640230981189807e-01 5.964668724901569519e-01 1.000000000000000000e+00
9.870421936228211957e-01 9.548414014439606801e-01 6.084810316269524400e-01 1.000000000000000000e+00
9.892374507956617213e-01 9.605468175431625122e-01 6.203163597011410735e-01 1.000000000000000000e+00
9.913348078626428306e-01 9.662986540775916344e-01 6.322666382450538025e-01 1.000000000000000000e+00
9.934390901019193310e-01 9.720717309870284817e-01 6.440732774212208911e-01 1.000000000000000000e+00
9.954462200944106387e-01 9.778921104764731753e-01 6.559754642131451208e-01 1.000000000000000000e+00
